%YAML 1.1
%TAG !u! tag:unity3d.com,2011:
--- !u!74 &7400000
AnimationClip:
  m_ObjectHideFlags: 0
  m_PrefabParentObject: {fileID: 0}
  m_PrefabInternal: {fileID: 0}
  m_Name: Alert
  serializedVersion: 6
  m_Legacy: 0
  m_Compressed: 0
  m_UseHighQualityCurve: 1
  m_RotationCurves: []
  m_CompressedRotationCurves: []
  m_EulerCurves: []
  m_PositionCurves: []
  m_ScaleCurves: []
  m_FloatCurves: []
  m_PPtrCurves:
  - curve:
    - time: 0
      value: {fileID: 21300000, guid: a69d830453ca42d479a047e9f91200eb, type: 3}
    - time: 0.11666667
      value: {fileID: 21300000, guid: 32ac96e19faae664e98db5d3b5a653ed, type: 3}
    - time: 0.21666667
      value: {fileID: 21300000, guid: 4d3fe24bae6fcaa448fa6728be2d3956, type: 3}
    - time: 0.33333334
      value: {fileID: 21300000, guid: ffb295b09d57ad942a50880faddb0f42, type: 3}
    - time: 0.45
      value: {fileID: 21300000, guid: ef80f69f92b377c49a79d6718cc6002a, type: 3}
    - time: 0.55
      value: {fileID: 21300000, guid: 355afbf0f5ccd024f9f7aee6d58e69b5, type: 3}
    - time: 0.6666667
      value: {fileID: 21300000, guid: 4605eb7a21d64c74382bf2127c7aa14f, type: 3}
    - time: 0.78333336
      value: {fileID: 21300000, guid: 2d31e784691f9694385d88c72507dd4f, type: 3}
    - time: 0.8833333
      value: {fileID: 21300000, guid: 606581bc0928d674388363c583f39259, type: 3}
    - time: 1
      value: {fileID: 21300000, guid: e3403d09cff07c84c88038a4968ac13d, type: 3}
    attribute: m_Sprite
    path: 
    classID: 212
    script: {fileID: 0}
  m_SampleRate: 60
  m_WrapMode: 0
  m_Bounds:
    m_Center: {x: 0, y: 0, z: 0}
    m_Extent: {x: 0, y: 0, z: 0}
  m_ClipBindingConstant:
    genericBindings:
    - serializedVersion: 2
      path: 0
      attribute: 0
      script: {fileID: 0}
      typeID: 212
      customType: 23
      isPPtrCurve: 1
    pptrCurveMapping:
    - {fileID: 21300000, guid: a69d830453ca42d479a047e9f91200eb, type: 3}
    - {fileID: 21300000, guid: 32ac96e19faae664e98db5d3b5a653ed, type: 3}
    - {fileID: 21300000, guid: 4d3fe24bae6fcaa448fa6728be2d3956, type: 3}
    - {fileID: 21300000, guid: ffb295b09d57ad942a50880faddb0f42, type: 3}
    - {fileID: 21300000, guid: ef80f69f92b377c49a79d6718cc6002a, type: 3}
    - {fileID: 21300000, guid: 355afbf0f5ccd024f9f7aee6d58e69b5, type: 3}
    - {fileID: 21300000, guid: 4605eb7a21d64c74382bf2127c7aa14f, type: 3}
    - {fileID: 21300000, guid: 2d31e784691f9694385d88c72507dd4f, type: 3}
    - {fileID: 21300000, guid: 606581bc0928d674388363c583f39259, type: 3}
    - {fileID: 21300000, guid: e3403d09cff07c84c88038a4968ac13d, type: 3}
  m_AnimationClipSettings:
    serializedVersion: 2
    m_AdditiveReferencePoseClip: {fileID: 0}
    m_AdditiveReferencePoseTime: 0
    m_StartTime: 0
    m_StopTime: 1.0166667
    m_OrientationOffsetY: 0
    m_Level: 0
    m_CycleOffset: 0
    m_HasAdditiveReferencePose: 0
    m_LoopTime: 1
    m_LoopBlend: 0
    m_LoopBlendOrientation: 0
    m_LoopBlendPositionY: 0
    m_LoopBlendPositionXZ: 0
    m_KeepOriginalOrientation: 0
    m_KeepOriginalPositionY: 1
    m_KeepOriginalPositionXZ: 0
    m_HeightFromFeet: 0
    m_Mirror: 0
  m_EditorCurves: []
  m_EulerEditorCurves: []
  m_HasGenericRootTransform: 0
  m_HasMotionFloatCurves: 0
  m_GenerateMotionCurves: 0
  m_Events: []
