%YAML 1.1
%TAG !u! tag:unity3d.com,2011:
--- !u!74 &7400000
AnimationClip:
  m_ObjectHideFlags: 0
  m_PrefabParentObject: {fileID: 0}
  m_PrefabInternal: {fileID: 0}
  m_Name: Attak
  serializedVersion: 6
  m_Legacy: 0
  m_Compressed: 0
  m_UseHighQualityCurve: 1
  m_RotationCurves: []
  m_CompressedRotationCurves: []
  m_EulerCurves: []
  m_PositionCurves: []
  m_ScaleCurves: []
  m_FloatCurves: []
  m_PPtrCurves:
  - curve:
    - time: 0
      value: {fileID: 21300000, guid: 1b0aab29daffc1c43971209331ff71eb, type: 3}
    - time: 0.1
      value: {fileID: 21300000, guid: cb57965e16ec9d24fa00d7675a447318, type: 3}
    - time: 0.2
      value: {fileID: 21300000, guid: 922eda0dd4378d64c867fdcc754bfac3, type: 3}
    - time: 0.3
      value: {fileID: 21300000, guid: b99a4af8418248941ae0d01e3368c72b, type: 3}
    - time: 0.41666666
      value: {fileID: 21300000, guid: edceb56451166f444861166c61ddb379, type: 3}
    - time: 0.5
      value: {fileID: 21300000, guid: 4d161f5a373324a43b862d2b62b3254c, type: 3}
    - time: 0.6166667
      value: {fileID: 21300000, guid: 5fcf00066e4317d4db370fb0e80cc90f, type: 3}
    - time: 0.71666664
      value: {fileID: 21300000, guid: aa2e068284c82d74aaa326aa78d9c0c9, type: 3}
    - time: 0.81666666
      value: {fileID: 21300000, guid: 717c85e967166d342bb5031e98fbc2eb, type: 3}
    - time: 0.9166667
      value: {fileID: 21300000, guid: 0903c0b6b07b2414db0f64546a294504, type: 3}
    attribute: m_Sprite
    path: 
    classID: 212
    script: {fileID: 0}
  m_SampleRate: 60
  m_WrapMode: 0
  m_Bounds:
    m_Center: {x: 0, y: 0, z: 0}
    m_Extent: {x: 0, y: 0, z: 0}
  m_ClipBindingConstant:
    genericBindings:
    - serializedVersion: 2
      path: 0
      attribute: 0
      script: {fileID: 0}
      typeID: 212
      customType: 23
      isPPtrCurve: 1
    pptrCurveMapping:
    - {fileID: 21300000, guid: 1b0aab29daffc1c43971209331ff71eb, type: 3}
    - {fileID: 21300000, guid: cb57965e16ec9d24fa00d7675a447318, type: 3}
    - {fileID: 21300000, guid: 922eda0dd4378d64c867fdcc754bfac3, type: 3}
    - {fileID: 21300000, guid: b99a4af8418248941ae0d01e3368c72b, type: 3}
    - {fileID: 21300000, guid: edceb56451166f444861166c61ddb379, type: 3}
    - {fileID: 21300000, guid: 4d161f5a373324a43b862d2b62b3254c, type: 3}
    - {fileID: 21300000, guid: 5fcf00066e4317d4db370fb0e80cc90f, type: 3}
    - {fileID: 21300000, guid: aa2e068284c82d74aaa326aa78d9c0c9, type: 3}
    - {fileID: 21300000, guid: 717c85e967166d342bb5031e98fbc2eb, type: 3}
    - {fileID: 21300000, guid: 0903c0b6b07b2414db0f64546a294504, type: 3}
  m_AnimationClipSettings:
    serializedVersion: 2
    m_AdditiveReferencePoseClip: {fileID: 0}
    m_AdditiveReferencePoseTime: 0
    m_StartTime: 0
    m_StopTime: 0.93333334
    m_OrientationOffsetY: 0
    m_Level: 0
    m_CycleOffset: 0
    m_HasAdditiveReferencePose: 0
    m_LoopTime: 1
    m_LoopBlend: 0
    m_LoopBlendOrientation: 0
    m_LoopBlendPositionY: 0
    m_LoopBlendPositionXZ: 0
    m_KeepOriginalOrientation: 0
    m_KeepOriginalPositionY: 1
    m_KeepOriginalPositionXZ: 0
    m_HeightFromFeet: 0
    m_Mirror: 0
  m_EditorCurves: []
  m_EulerEditorCurves: []
  m_HasGenericRootTransform: 0
  m_HasMotionFloatCurves: 0
  m_GenerateMotionCurves: 0
  m_Events:
  - time: 0.5
    functionName: ApplyDamage
    data: 
    objectReferenceParameter: {fileID: 0}
    floatParameter: 0
    intParameter: 0
    messageOptions: 0
