%YAML 1.1
%TAG !u! tag:unity3d.com,2011:
--- !u!74 &7400000
AnimationClip:
  m_ObjectHideFlags: 0
  m_PrefabParentObject: {fileID: 0}
  m_PrefabInternal: {fileID: 0}
  m_Name: Hit
  serializedVersion: 6
  m_Legacy: 0
  m_Compressed: 0
  m_UseHighQualityCurve: 1
  m_RotationCurves: []
  m_CompressedRotationCurves: []
  m_EulerCurves: []
  m_PositionCurves: []
  m_ScaleCurves: []
  m_FloatCurves: []
  m_PPtrCurves:
  - curve:
    - time: 0
      value: {fileID: 21300000, guid: 5b8e5ffeb76749247ae4160ce45abe29, type: 3}
    - time: 0.11666667
      value: {fileID: 21300000, guid: 78508243df51779478a866256b3c6e65, type: 3}
    - time: 0.21666667
      value: {fileID: 21300000, guid: 755e557546f0c5c4c943dd3ac7dad0d7, type: 3}
    - time: 0.33333334
      value: {fileID: 21300000, guid: bc221b03599c71f4295447a3882e8425, type: 3}
    - time: 0.45
      value: {fileID: 21300000, guid: 6cd575ced7fc7144582a8d26c16f1fe2, type: 3}
    - time: 0.55
      value: {fileID: 21300000, guid: c8f10f0f622e4de478ff848c0009dc29, type: 3}
    - time: 0.6666667
      value: {fileID: 21300000, guid: a349c6f91ba51a048bfdd7a34969bc8f, type: 3}
    - time: 0.78333336
      value: {fileID: 21300000, guid: ed376fe7239917849a83ba83d248ec61, type: 3}
    - time: 0.8833333
      value: {fileID: 21300000, guid: b57a9298ecf1cea449284781954839b6, type: 3}
    - time: 1
      value: {fileID: 21300000, guid: 399d4e8cd7c722648bd624339644f265, type: 3}
    attribute: m_Sprite
    path: 
    classID: 212
    script: {fileID: 0}
  m_SampleRate: 60
  m_WrapMode: 0
  m_Bounds:
    m_Center: {x: 0, y: 0, z: 0}
    m_Extent: {x: 0, y: 0, z: 0}
  m_ClipBindingConstant:
    genericBindings:
    - serializedVersion: 2
      path: 0
      attribute: 0
      script: {fileID: 0}
      typeID: 212
      customType: 23
      isPPtrCurve: 1
    pptrCurveMapping:
    - {fileID: 21300000, guid: 5b8e5ffeb76749247ae4160ce45abe29, type: 3}
    - {fileID: 21300000, guid: 78508243df51779478a866256b3c6e65, type: 3}
    - {fileID: 21300000, guid: 755e557546f0c5c4c943dd3ac7dad0d7, type: 3}
    - {fileID: 21300000, guid: bc221b03599c71f4295447a3882e8425, type: 3}
    - {fileID: 21300000, guid: 6cd575ced7fc7144582a8d26c16f1fe2, type: 3}
    - {fileID: 21300000, guid: c8f10f0f622e4de478ff848c0009dc29, type: 3}
    - {fileID: 21300000, guid: a349c6f91ba51a048bfdd7a34969bc8f, type: 3}
    - {fileID: 21300000, guid: ed376fe7239917849a83ba83d248ec61, type: 3}
    - {fileID: 21300000, guid: b57a9298ecf1cea449284781954839b6, type: 3}
    - {fileID: 21300000, guid: 399d4e8cd7c722648bd624339644f265, type: 3}
  m_AnimationClipSettings:
    serializedVersion: 2
    m_AdditiveReferencePoseClip: {fileID: 0}
    m_AdditiveReferencePoseTime: 0
    m_StartTime: 0
    m_StopTime: 1.0166667
    m_OrientationOffsetY: 0
    m_Level: 0
    m_CycleOffset: 0
    m_HasAdditiveReferencePose: 0
    m_LoopTime: 1
    m_LoopBlend: 0
    m_LoopBlendOrientation: 0
    m_LoopBlendPositionY: 0
    m_LoopBlendPositionXZ: 0
    m_KeepOriginalOrientation: 0
    m_KeepOriginalPositionY: 1
    m_KeepOriginalPositionXZ: 0
    m_HeightFromFeet: 0
    m_Mirror: 0
  m_EditorCurves: []
  m_EulerEditorCurves: []
  m_HasGenericRootTransform: 0
  m_HasMotionFloatCurves: 0
  m_GenerateMotionCurves: 0
  m_Events: []
