%YAML 1.1
%TAG !u! tag:unity3d.com,2011:
--- !u!74 &7400000
AnimationClip:
  m_ObjectHideFlags: 0
  m_CorrespondingSourceObject: {fileID: 0}
  m_PrefabInstance: {fileID: 0}
  m_PrefabAsset: {fileID: 0}
  m_Name: Attak
  serializedVersion: 6
  m_Legacy: 0
  m_Compressed: 0
  m_UseHighQualityCurve: 1
  m_RotationCurves: []
  m_CompressedRotationCurves: []
  m_EulerCurves: []
  m_PositionCurves: []
  m_ScaleCurves: []
  m_FloatCurves: []
  m_PPtrCurves:
  - curve:
    - time: 0
      value: {fileID: 21300000, guid: 70af17e37a02ce7428e06a1559724fff, type: 3}
    - time: 0.13333334
      value: {fileID: 21300000, guid: a5f910ac38719554bacc5d7563426234, type: 3}
    - time: 0.25
      value: {fileID: 21300000, guid: ebf1cb9d806c5e6428b3deeaa5e9a2c5, type: 3}
    - time: 0.36666667
      value: {fileID: 21300000, guid: 2ecf0869515bd254fb99b98e33f61b16, type: 3}
    - time: 0.5
      value: {fileID: 21300000, guid: d6b1b56b6f3bda34b91b3f463a3ced50, type: 3}
    - time: 0.6166667
      value: {fileID: 21300000, guid: fe7e2cfca3abe694f82dcf1191433d1b, type: 3}
    - time: 0.75
      value: {fileID: 21300000, guid: a068c4d6d8d511144af22aeb545c052c, type: 3}
    attribute: m_Sprite
    path: 
    classID: 212
    script: {fileID: 0}
  m_SampleRate: 60
  m_WrapMode: 0
  m_Bounds:
    m_Center: {x: 0, y: 0, z: 0}
    m_Extent: {x: 0, y: 0, z: 0}
  m_ClipBindingConstant:
    genericBindings:
    - serializedVersion: 2
      path: 0
      attribute: 0
      script: {fileID: 0}
      typeID: 212
      customType: 23
      isPPtrCurve: 1
    pptrCurveMapping:
    - {fileID: 21300000, guid: 70af17e37a02ce7428e06a1559724fff, type: 3}
    - {fileID: 21300000, guid: a5f910ac38719554bacc5d7563426234, type: 3}
    - {fileID: 21300000, guid: ebf1cb9d806c5e6428b3deeaa5e9a2c5, type: 3}
    - {fileID: 21300000, guid: 2ecf0869515bd254fb99b98e33f61b16, type: 3}
    - {fileID: 21300000, guid: d6b1b56b6f3bda34b91b3f463a3ced50, type: 3}
    - {fileID: 21300000, guid: fe7e2cfca3abe694f82dcf1191433d1b, type: 3}
    - {fileID: 21300000, guid: a068c4d6d8d511144af22aeb545c052c, type: 3}
  m_AnimationClipSettings:
    serializedVersion: 2
    m_AdditiveReferencePoseClip: {fileID: 0}
    m_AdditiveReferencePoseTime: 0
    m_StartTime: 0
    m_StopTime: 0.76666665
    m_OrientationOffsetY: 0
    m_Level: 0
    m_CycleOffset: 0
    m_HasAdditiveReferencePose: 0
    m_LoopTime: 1
    m_LoopBlend: 0
    m_LoopBlendOrientation: 0
    m_LoopBlendPositionY: 0
    m_LoopBlendPositionXZ: 0
    m_KeepOriginalOrientation: 0
    m_KeepOriginalPositionY: 1
    m_KeepOriginalPositionXZ: 0
    m_HeightFromFeet: 0
    m_Mirror: 0
  m_EditorCurves: []
  m_EulerEditorCurves: []
  m_HasGenericRootTransform: 0
  m_HasMotionFloatCurves: 0
  m_Events:
  - time: 0.6166667
    functionName: ApplyDamage
    data: 
    objectReferenceParameter: {fileID: 0}
    floatParameter: 0
    intParameter: 0
    messageOptions: 0
