%YAML 1.1
%TAG !u! tag:unity3d.com,2011:
--- !u!74 &7400000
AnimationClip:
  m_ObjectHideFlags: 0
  m_PrefabParentObject: {fileID: 0}
  m_PrefabInternal: {fileID: 0}
  m_Name: Hit
  serializedVersion: 6
  m_Legacy: 0
  m_Compressed: 0
  m_UseHighQualityCurve: 1
  m_RotationCurves: []
  m_CompressedRotationCurves: []
  m_EulerCurves: []
  m_PositionCurves: []
  m_ScaleCurves: []
  m_FloatCurves: []
  m_PPtrCurves:
  - curve:
    - time: 0
      value: {fileID: 21300000, guid: 41302f8446c8f12468829185017670d7, type: 3}
    - time: 0.11666667
      value: {fileID: 21300000, guid: 1b73f4f6c28ef9b48bccb966fda99f2a, type: 3}
    - time: 0.21666667
      value: {fileID: 21300000, guid: b31a6f5a2490d5c40bdefba06dc82fa8, type: 3}
    - time: 0.33333334
      value: {fileID: 21300000, guid: d7aa2b3be3c19774b9b98a7963b565ba, type: 3}
    - time: 0.45
      value: {fileID: 21300000, guid: 8aa03ac5683027443b4de15d0d7fdd75, type: 3}
    - time: 0.55
      value: {fileID: 21300000, guid: 2be38bf66698097428f61b57742c69c5, type: 3}
    - time: 0.6666667
      value: {fileID: 21300000, guid: c587c7dea47ac7f438da19f06f5a3b1f, type: 3}
    - time: 0.78333336
      value: {fileID: 21300000, guid: 012b72b05d7165d4fa5c916505cc1e13, type: 3}
    - time: 0.8833333
      value: {fileID: 21300000, guid: a9c518d04523d964a95785b7c06dc457, type: 3}
    - time: 1
      value: {fileID: 21300000, guid: c7301af819b4d1a44b10670d26aef0cf, type: 3}
    attribute: m_Sprite
    path: 
    classID: 212
    script: {fileID: 0}
  m_SampleRate: 60
  m_WrapMode: 0
  m_Bounds:
    m_Center: {x: 0, y: 0, z: 0}
    m_Extent: {x: 0, y: 0, z: 0}
  m_ClipBindingConstant:
    genericBindings:
    - serializedVersion: 2
      path: 0
      attribute: 0
      script: {fileID: 0}
      typeID: 212
      customType: 23
      isPPtrCurve: 1
    pptrCurveMapping:
    - {fileID: 21300000, guid: 41302f8446c8f12468829185017670d7, type: 3}
    - {fileID: 21300000, guid: 1b73f4f6c28ef9b48bccb966fda99f2a, type: 3}
    - {fileID: 21300000, guid: b31a6f5a2490d5c40bdefba06dc82fa8, type: 3}
    - {fileID: 21300000, guid: d7aa2b3be3c19774b9b98a7963b565ba, type: 3}
    - {fileID: 21300000, guid: 8aa03ac5683027443b4de15d0d7fdd75, type: 3}
    - {fileID: 21300000, guid: 2be38bf66698097428f61b57742c69c5, type: 3}
    - {fileID: 21300000, guid: c587c7dea47ac7f438da19f06f5a3b1f, type: 3}
    - {fileID: 21300000, guid: 012b72b05d7165d4fa5c916505cc1e13, type: 3}
    - {fileID: 21300000, guid: a9c518d04523d964a95785b7c06dc457, type: 3}
    - {fileID: 21300000, guid: c7301af819b4d1a44b10670d26aef0cf, type: 3}
  m_AnimationClipSettings:
    serializedVersion: 2
    m_AdditiveReferencePoseClip: {fileID: 0}
    m_AdditiveReferencePoseTime: 0
    m_StartTime: 0
    m_StopTime: 1.0166667
    m_OrientationOffsetY: 0
    m_Level: 0
    m_CycleOffset: 0
    m_HasAdditiveReferencePose: 0
    m_LoopTime: 1
    m_LoopBlend: 0
    m_LoopBlendOrientation: 0
    m_LoopBlendPositionY: 0
    m_LoopBlendPositionXZ: 0
    m_KeepOriginalOrientation: 0
    m_KeepOriginalPositionY: 1
    m_KeepOriginalPositionXZ: 0
    m_HeightFromFeet: 0
    m_Mirror: 0
  m_EditorCurves: []
  m_EulerEditorCurves: []
  m_HasGenericRootTransform: 0
  m_HasMotionFloatCurves: 0
  m_GenerateMotionCurves: 0
  m_Events: []
