%YAML 1.1
%TAG !u! tag:unity3d.com,2011:
--- !u!74 &7400000
AnimationClip:
  m_ObjectHideFlags: 0
  m_PrefabParentObject: {fileID: 0}
  m_PrefabInternal: {fileID: 0}
  m_Name: Walk
  serializedVersion: 6
  m_Legacy: 0
  m_Compressed: 0
  m_UseHighQualityCurve: 1
  m_RotationCurves: []
  m_CompressedRotationCurves: []
  m_EulerCurves: []
  m_PositionCurves: []
  m_ScaleCurves: []
  m_FloatCurves: []
  m_PPtrCurves:
  - curve:
    - time: 0
      value: {fileID: 21300000, guid: 480dd4196c4563a4d95f9fd811edc6c5, type: 3}
    - time: 0.11666667
      value: {fileID: 21300000, guid: 9f8f2b8c7288064429eb51ee9929011d, type: 3}
    - time: 0.21666667
      value: {fileID: 21300000, guid: c61a1fbc89b128441bf1b82e4d35ae8c, type: 3}
    - time: 0.33333334
      value: {fileID: 21300000, guid: 1f5786c4e61ff7c41b9ff3953ce1df80, type: 3}
    - time: 0.45
      value: {fileID: 21300000, guid: f761306c17deab543a49e8e51bbdadff, type: 3}
    - time: 0.55
      value: {fileID: 21300000, guid: a609c255b0426bf448b6a3bc6f07c05d, type: 3}
    - time: 0.6666667
      value: {fileID: 21300000, guid: 1e9d46336e5cd944cab82c5501ddf38a, type: 3}
    - time: 0.78333336
      value: {fileID: 21300000, guid: 923edbd587e66bc47aad9dd2453f5291, type: 3}
    - time: 0.8833333
      value: {fileID: 21300000, guid: ea8f84be87e923242ac66ebcf0bae3e6, type: 3}
    - time: 1
      value: {fileID: 21300000, guid: 6e2c2e86ca9851947b88a25c7c4654b9, type: 3}
    attribute: m_Sprite
    path: 
    classID: 212
    script: {fileID: 0}
  m_SampleRate: 60
  m_WrapMode: 0
  m_Bounds:
    m_Center: {x: 0, y: 0, z: 0}
    m_Extent: {x: 0, y: 0, z: 0}
  m_ClipBindingConstant:
    genericBindings:
    - serializedVersion: 2
      path: 0
      attribute: 0
      script: {fileID: 0}
      typeID: 212
      customType: 23
      isPPtrCurve: 1
    pptrCurveMapping:
    - {fileID: 21300000, guid: 480dd4196c4563a4d95f9fd811edc6c5, type: 3}
    - {fileID: 21300000, guid: 9f8f2b8c7288064429eb51ee9929011d, type: 3}
    - {fileID: 21300000, guid: c61a1fbc89b128441bf1b82e4d35ae8c, type: 3}
    - {fileID: 21300000, guid: 1f5786c4e61ff7c41b9ff3953ce1df80, type: 3}
    - {fileID: 21300000, guid: f761306c17deab543a49e8e51bbdadff, type: 3}
    - {fileID: 21300000, guid: a609c255b0426bf448b6a3bc6f07c05d, type: 3}
    - {fileID: 21300000, guid: 1e9d46336e5cd944cab82c5501ddf38a, type: 3}
    - {fileID: 21300000, guid: 923edbd587e66bc47aad9dd2453f5291, type: 3}
    - {fileID: 21300000, guid: ea8f84be87e923242ac66ebcf0bae3e6, type: 3}
    - {fileID: 21300000, guid: 6e2c2e86ca9851947b88a25c7c4654b9, type: 3}
  m_AnimationClipSettings:
    serializedVersion: 2
    m_AdditiveReferencePoseClip: {fileID: 0}
    m_AdditiveReferencePoseTime: 0
    m_StartTime: 0
    m_StopTime: 1.0166667
    m_OrientationOffsetY: 0
    m_Level: 0
    m_CycleOffset: 0
    m_HasAdditiveReferencePose: 0
    m_LoopTime: 1
    m_LoopBlend: 0
    m_LoopBlendOrientation: 0
    m_LoopBlendPositionY: 0
    m_LoopBlendPositionXZ: 0
    m_KeepOriginalOrientation: 0
    m_KeepOriginalPositionY: 1
    m_KeepOriginalPositionXZ: 0
    m_HeightFromFeet: 0
    m_Mirror: 0
  m_EditorCurves: []
  m_EulerEditorCurves: []
  m_HasGenericRootTransform: 0
  m_HasMotionFloatCurves: 0
  m_GenerateMotionCurves: 0
  m_Events: []
