%YAML 1.1
%TAG !u! tag:unity3d.com,2011:
--- !u!74 &7400000
AnimationClip:
  m_ObjectHideFlags: 0
  m_PrefabParentObject: {fileID: 0}
  m_PrefabInternal: {fileID: 0}
  m_Name: Dead
  serializedVersion: 6
  m_Legacy: 0
  m_Compressed: 0
  m_UseHighQualityCurve: 1
  m_RotationCurves: []
  m_CompressedRotationCurves: []
  m_EulerCurves: []
  m_PositionCurves: []
  m_ScaleCurves: []
  m_FloatCurves: []
  m_PPtrCurves:
  - curve:
    - time: 0
      value: {fileID: 21300000, guid: c670efec983f0a94d8aad438d9f4daff, type: 3}
    - time: 0.1
      value: {fileID: 21300000, guid: 13b1c4ff6278fe44aa7c495024458513, type: 3}
    - time: 0.18333334
      value: {fileID: 21300000, guid: 2491c92a00295d4499507b741fe89927, type: 3}
    - time: 0.28333333
      value: {fileID: 21300000, guid: 4d8f006441feddb48b6b2a6b17fcaff4, type: 3}
    - time: 0.36666667
      value: {fileID: 21300000, guid: 86bde65263a744c42acb02c83dd5e786, type: 3}
    - time: 0.46666667
      value: {fileID: 21300000, guid: f0f1556f9adb295449efcfb82df874b9, type: 3}
    - time: 0.55
      value: {fileID: 21300000, guid: ab03633df92234241a912dc30b612e14, type: 3}
    - time: 0.65
      value: {fileID: 21300000, guid: 8cadec514699aa44ba1dc59adb289fe8, type: 3}
    - time: 0.73333335
      value: {fileID: 21300000, guid: 472e28606705c774b9cb799599c67fa3, type: 3}
    - time: 0.8333333
      value: {fileID: 21300000, guid: 4ca024ad318fc6846837ffc7b140fa20, type: 3}
    attribute: m_Sprite
    path: 
    classID: 212
    script: {fileID: 0}
  m_SampleRate: 60
  m_WrapMode: 0
  m_Bounds:
    m_Center: {x: 0, y: 0, z: 0}
    m_Extent: {x: 0, y: 0, z: 0}
  m_ClipBindingConstant:
    genericBindings:
    - serializedVersion: 2
      path: 0
      attribute: 0
      script: {fileID: 0}
      typeID: 212
      customType: 23
      isPPtrCurve: 1
    pptrCurveMapping:
    - {fileID: 21300000, guid: c670efec983f0a94d8aad438d9f4daff, type: 3}
    - {fileID: 21300000, guid: 13b1c4ff6278fe44aa7c495024458513, type: 3}
    - {fileID: 21300000, guid: 2491c92a00295d4499507b741fe89927, type: 3}
    - {fileID: 21300000, guid: 4d8f006441feddb48b6b2a6b17fcaff4, type: 3}
    - {fileID: 21300000, guid: 86bde65263a744c42acb02c83dd5e786, type: 3}
    - {fileID: 21300000, guid: f0f1556f9adb295449efcfb82df874b9, type: 3}
    - {fileID: 21300000, guid: ab03633df92234241a912dc30b612e14, type: 3}
    - {fileID: 21300000, guid: 8cadec514699aa44ba1dc59adb289fe8, type: 3}
    - {fileID: 21300000, guid: 472e28606705c774b9cb799599c67fa3, type: 3}
    - {fileID: 21300000, guid: 4ca024ad318fc6846837ffc7b140fa20, type: 3}
  m_AnimationClipSettings:
    serializedVersion: 2
    m_AdditiveReferencePoseClip: {fileID: 0}
    m_AdditiveReferencePoseTime: 0
    m_StartTime: 0
    m_StopTime: 0.84999996
    m_OrientationOffsetY: 0
    m_Level: 0
    m_CycleOffset: 0
    m_HasAdditiveReferencePose: 0
    m_LoopTime: 0
    m_LoopBlend: 0
    m_LoopBlendOrientation: 0
    m_LoopBlendPositionY: 0
    m_LoopBlendPositionXZ: 0
    m_KeepOriginalOrientation: 0
    m_KeepOriginalPositionY: 1
    m_KeepOriginalPositionXZ: 0
    m_HeightFromFeet: 0
    m_Mirror: 0
  m_EditorCurves: []
  m_EulerEditorCurves: []
  m_HasGenericRootTransform: 0
  m_HasMotionFloatCurves: 0
  m_GenerateMotionCurves: 0
  m_Events: []
