%YAML 1.1
%TAG !u! tag:unity3d.com,2011:
--- !u!74 &7400000
AnimationClip:
  m_ObjectHideFlags: 0
  m_PrefabParentObject: {fileID: 0}
  m_PrefabInternal: {fileID: 0}
  m_Name: Idle
  serializedVersion: 6
  m_Legacy: 0
  m_Compressed: 0
  m_UseHighQualityCurve: 1
  m_RotationCurves: []
  m_CompressedRotationCurves: []
  m_EulerCurves: []
  m_PositionCurves: []
  m_ScaleCurves: []
  m_FloatCurves: []
  m_PPtrCurves:
  - curve:
    - time: 0
      value: {fileID: 21300000, guid: 1933b1043602c9645a2841ae90808bbf, type: 3}
    - time: 0.16666667
      value: {fileID: 21300000, guid: 30f76e0a3e8da374fad60503ec034c47, type: 3}
    - time: 0.35
      value: {fileID: 21300000, guid: 14d2227dbf43cb94790613bb34083778, type: 3}
    - time: 0.5
      value: {fileID: 21300000, guid: 1a7e23447894f874bb6eccab29d72d78, type: 3}
    - time: 0.6666667
      value: {fileID: 21300000, guid: 55701cc72e1073f4e94993df8e79bdaf, type: 3}
    - time: 0.8333333
      value: {fileID: 21300000, guid: ccae42dcaa11b874cbd149227bf8f91d, type: 3}
    - time: 1
      value: {fileID: 21300000, guid: 533975a7bec7e6c4690683c3a948c7a1, type: 3}
    - time: 1.15
      value: {fileID: 21300000, guid: da0bbb6d2bbf0bf4f861e0109768e308, type: 3}
    - time: 1.3333334
      value: {fileID: 21300000, guid: b293de042985b7843bc02ce86dce0147, type: 3}
    - time: 1.5
      value: {fileID: 21300000, guid: d91b23c8ee04ca343994c87517c431d8, type: 3}
    attribute: m_Sprite
    path: 
    classID: 212
    script: {fileID: 0}
  m_SampleRate: 60
  m_WrapMode: 0
  m_Bounds:
    m_Center: {x: 0, y: 0, z: 0}
    m_Extent: {x: 0, y: 0, z: 0}
  m_ClipBindingConstant:
    genericBindings:
    - serializedVersion: 2
      path: 0
      attribute: 0
      script: {fileID: 0}
      typeID: 212
      customType: 23
      isPPtrCurve: 1
    pptrCurveMapping:
    - {fileID: 21300000, guid: 1933b1043602c9645a2841ae90808bbf, type: 3}
    - {fileID: 21300000, guid: 30f76e0a3e8da374fad60503ec034c47, type: 3}
    - {fileID: 21300000, guid: 14d2227dbf43cb94790613bb34083778, type: 3}
    - {fileID: 21300000, guid: 1a7e23447894f874bb6eccab29d72d78, type: 3}
    - {fileID: 21300000, guid: 55701cc72e1073f4e94993df8e79bdaf, type: 3}
    - {fileID: 21300000, guid: ccae42dcaa11b874cbd149227bf8f91d, type: 3}
    - {fileID: 21300000, guid: 533975a7bec7e6c4690683c3a948c7a1, type: 3}
    - {fileID: 21300000, guid: da0bbb6d2bbf0bf4f861e0109768e308, type: 3}
    - {fileID: 21300000, guid: b293de042985b7843bc02ce86dce0147, type: 3}
    - {fileID: 21300000, guid: d91b23c8ee04ca343994c87517c431d8, type: 3}
  m_AnimationClipSettings:
    serializedVersion: 2
    m_AdditiveReferencePoseClip: {fileID: 0}
    m_AdditiveReferencePoseTime: 0
    m_StartTime: 0
    m_StopTime: 1.5166667
    m_OrientationOffsetY: 0
    m_Level: 0
    m_CycleOffset: 0
    m_HasAdditiveReferencePose: 0
    m_LoopTime: 1
    m_LoopBlend: 0
    m_LoopBlendOrientation: 0
    m_LoopBlendPositionY: 0
    m_LoopBlendPositionXZ: 0
    m_KeepOriginalOrientation: 0
    m_KeepOriginalPositionY: 1
    m_KeepOriginalPositionXZ: 0
    m_HeightFromFeet: 0
    m_Mirror: 0
  m_EditorCurves: []
  m_EulerEditorCurves: []
  m_HasGenericRootTransform: 0
  m_HasMotionFloatCurves: 0
  m_GenerateMotionCurves: 0
  m_Events: []
