%YAML 1.1
%TAG !u! tag:unity3d.com,2011:
--- !u!74 &7400000
AnimationClip:
  m_ObjectHideFlags: 0
  m_PrefabParentObject: {fileID: 0}
  m_PrefabInternal: {fileID: 0}
  m_Name: Alert
  serializedVersion: 6
  m_Legacy: 0
  m_Compressed: 0
  m_UseHighQualityCurve: 1
  m_RotationCurves: []
  m_CompressedRotationCurves: []
  m_EulerCurves: []
  m_PositionCurves: []
  m_ScaleCurves: []
  m_FloatCurves: []
  m_PPtrCurves:
  - curve:
    - time: 0
      value: {fileID: 21300000, guid: 5c5df1609c3da58409493f7375466b99, type: 3}
    - time: 0.11666667
      value: {fileID: 21300000, guid: 110cb992e6897ee429e8fdc741a1cbb6, type: 3}
    - time: 0.21666667
      value: {fileID: 21300000, guid: d4fad046d2d83ca42995157937ef0c3a, type: 3}
    - time: 0.33333334
      value: {fileID: 21300000, guid: f4f4a744572a6934e90d9dfed848bfba, type: 3}
    - time: 0.45
      value: {fileID: 21300000, guid: 96d5525ae132d924fb96585e6e81d5b5, type: 3}
    - time: 0.55
      value: {fileID: 21300000, guid: e44459397d01c2b468ef1b874d54e432, type: 3}
    - time: 0.6666667
      value: {fileID: 21300000, guid: 0569d30e5ce194845893e98d55e0c375, type: 3}
    - time: 0.78333336
      value: {fileID: 21300000, guid: 34eb4c9e3656f03479143e63768cd8bc, type: 3}
    - time: 0.8833333
      value: {fileID: 21300000, guid: 018e8433ac881814faf3bc25b5bbe3cb, type: 3}
    - time: 1
      value: {fileID: 21300000, guid: 0724b9f4a6592584c947bca938f1185d, type: 3}
    attribute: m_Sprite
    path: 
    classID: 212
    script: {fileID: 0}
  m_SampleRate: 60
  m_WrapMode: 0
  m_Bounds:
    m_Center: {x: 0, y: 0, z: 0}
    m_Extent: {x: 0, y: 0, z: 0}
  m_ClipBindingConstant:
    genericBindings:
    - serializedVersion: 2
      path: 0
      attribute: 0
      script: {fileID: 0}
      typeID: 212
      customType: 23
      isPPtrCurve: 1
    pptrCurveMapping:
    - {fileID: 21300000, guid: 5c5df1609c3da58409493f7375466b99, type: 3}
    - {fileID: 21300000, guid: 110cb992e6897ee429e8fdc741a1cbb6, type: 3}
    - {fileID: 21300000, guid: d4fad046d2d83ca42995157937ef0c3a, type: 3}
    - {fileID: 21300000, guid: f4f4a744572a6934e90d9dfed848bfba, type: 3}
    - {fileID: 21300000, guid: 96d5525ae132d924fb96585e6e81d5b5, type: 3}
    - {fileID: 21300000, guid: e44459397d01c2b468ef1b874d54e432, type: 3}
    - {fileID: 21300000, guid: 0569d30e5ce194845893e98d55e0c375, type: 3}
    - {fileID: 21300000, guid: 34eb4c9e3656f03479143e63768cd8bc, type: 3}
    - {fileID: 21300000, guid: 018e8433ac881814faf3bc25b5bbe3cb, type: 3}
    - {fileID: 21300000, guid: 0724b9f4a6592584c947bca938f1185d, type: 3}
  m_AnimationClipSettings:
    serializedVersion: 2
    m_AdditiveReferencePoseClip: {fileID: 0}
    m_AdditiveReferencePoseTime: 0
    m_StartTime: 0
    m_StopTime: 1.0166667
    m_OrientationOffsetY: 0
    m_Level: 0
    m_CycleOffset: 0
    m_HasAdditiveReferencePose: 0
    m_LoopTime: 1
    m_LoopBlend: 0
    m_LoopBlendOrientation: 0
    m_LoopBlendPositionY: 0
    m_LoopBlendPositionXZ: 0
    m_KeepOriginalOrientation: 0
    m_KeepOriginalPositionY: 1
    m_KeepOriginalPositionXZ: 0
    m_HeightFromFeet: 0
    m_Mirror: 0
  m_EditorCurves: []
  m_EulerEditorCurves: []
  m_HasGenericRootTransform: 0
  m_HasMotionFloatCurves: 0
  m_GenerateMotionCurves: 0
  m_Events: []
