%YAML 1.1
%TAG !u! tag:unity3d.com,2011:
--- !u!74 &7400000
AnimationClip:
  m_ObjectHideFlags: 0
  m_PrefabParentObject: {fileID: 0}
  m_PrefabInternal: {fileID: 0}
  m_Name: Die
  serializedVersion: 6
  m_Legacy: 0
  m_Compressed: 0
  m_UseHighQualityCurve: 1
  m_RotationCurves: []
  m_CompressedRotationCurves: []
  m_EulerCurves: []
  m_PositionCurves: []
  m_ScaleCurves: []
  m_FloatCurves: []
  m_PPtrCurves:
  - curve:
    - time: 0
      value: {fileID: 21300000, guid: 0bed3ae8b5d5b2b4eb3ea1ca78dc5122, type: 3}
    - time: 0.083333336
      value: {fileID: 21300000, guid: d0c30da6e191e9e4281c242140ca1790, type: 3}
    - time: 0.16666667
      value: {fileID: 21300000, guid: e7015bb2df881cc47875d7e5998919af, type: 3}
    - time: 0.25
      value: {fileID: 21300000, guid: 9d750aa8669361f4c9d4e99d8e78aad7, type: 3}
    - time: 0.33333334
      value: {fileID: 21300000, guid: e02bf81d08f1d1d4aaf12fc568670eab, type: 3}
    - time: 0.41666666
      value: {fileID: 21300000, guid: 3393404a277f89b4ca11a8e3a3e9b9e2, type: 3}
    - time: 0.5
      value: {fileID: 21300000, guid: 5e90733e690d15d4a83606f4ece9162f, type: 3}
    - time: 0.5833333
      value: {fileID: 21300000, guid: aa25c2485caf98f4391c42cfc7ca7b9a, type: 3}
    - time: 0.6666667
      value: {fileID: 21300000, guid: 81b6763af69065d4ba427339802aa9f9, type: 3}
    - time: 0.75
      value: {fileID: 21300000, guid: ddf07c553ccd8a44c86f15b90295dfee, type: 3}
    attribute: m_Sprite
    path: 
    classID: 212
    script: {fileID: 0}
  m_SampleRate: 60
  m_WrapMode: 0
  m_Bounds:
    m_Center: {x: 0, y: 0, z: 0}
    m_Extent: {x: 0, y: 0, z: 0}
  m_ClipBindingConstant:
    genericBindings:
    - serializedVersion: 2
      path: 0
      attribute: 0
      script: {fileID: 0}
      typeID: 212
      customType: 23
      isPPtrCurve: 1
    pptrCurveMapping:
    - {fileID: 21300000, guid: 0bed3ae8b5d5b2b4eb3ea1ca78dc5122, type: 3}
    - {fileID: 21300000, guid: d0c30da6e191e9e4281c242140ca1790, type: 3}
    - {fileID: 21300000, guid: e7015bb2df881cc47875d7e5998919af, type: 3}
    - {fileID: 21300000, guid: 9d750aa8669361f4c9d4e99d8e78aad7, type: 3}
    - {fileID: 21300000, guid: e02bf81d08f1d1d4aaf12fc568670eab, type: 3}
    - {fileID: 21300000, guid: 3393404a277f89b4ca11a8e3a3e9b9e2, type: 3}
    - {fileID: 21300000, guid: 5e90733e690d15d4a83606f4ece9162f, type: 3}
    - {fileID: 21300000, guid: aa25c2485caf98f4391c42cfc7ca7b9a, type: 3}
    - {fileID: 21300000, guid: 81b6763af69065d4ba427339802aa9f9, type: 3}
    - {fileID: 21300000, guid: ddf07c553ccd8a44c86f15b90295dfee, type: 3}
  m_AnimationClipSettings:
    serializedVersion: 2
    m_AdditiveReferencePoseClip: {fileID: 0}
    m_AdditiveReferencePoseTime: 0
    m_StartTime: 0
    m_StopTime: 0.76666665
    m_OrientationOffsetY: 0
    m_Level: 0
    m_CycleOffset: 0
    m_HasAdditiveReferencePose: 0
    m_LoopTime: 1
    m_LoopBlend: 0
    m_LoopBlendOrientation: 0
    m_LoopBlendPositionY: 0
    m_LoopBlendPositionXZ: 0
    m_KeepOriginalOrientation: 0
    m_KeepOriginalPositionY: 1
    m_KeepOriginalPositionXZ: 0
    m_HeightFromFeet: 0
    m_Mirror: 0
  m_EditorCurves: []
  m_EulerEditorCurves: []
  m_HasGenericRootTransform: 0
  m_HasMotionFloatCurves: 0
  m_GenerateMotionCurves: 0
  m_Events: []
